Analytics for Accounting Data - 3 Exploratory Data Analysis (EDA)
…
6
summarize ()
agg ()

3.9.1 1st Verb - filter () Function

     Filter functions are used to subset a data frame based on rows, meaning that retaining rows that satisfy given conditions. Filtering rows is also called slicing2 becasue we obtain a set of elements by filtering.

dplyr
pandas

df |> filter (YEAR == "2015")

# A tibble: 4,848 × 14
   INVOICENO DATE       COUNTRY       PRODUCTID SHOP  GENDER SIZE_US SIZE_EUROPE
       <dbl> <date>     <chr>         <chr>     <chr> <chr>    <dbl> <chr>      
 1     54725 2015-01-01 United States 2187      US7   Male       9.5 42-43      
 2     54726 2015-01-01 United States 2174      US3   Male       8.5 41-42      
 3     54727 2015-01-01 United States 2240      US11  Male       9   42         
 4     54728 2015-01-01 Germany       2220      GER2  Male      10   43         
 5     54729 2015-01-01 United Kingd… 2199      UK5   Male       9.5 42-43      
 6     54730 2015-01-01 Canada        2169      CAN7  Female     7   37-38      
 7     54731 2015-01-01 Germany       2188      GER1  Female     9.5 40         
 8     54732 2015-01-02 United Kingd… 2155      UK5   Female    10   40-41      
 9     54733 2015-01-02 United States 2173      US5   Female     9   39-40      
10     54734 2015-01-02 Germany       2222      GER3  Female     7.5 38         
# ℹ 4,838 more rows
# ℹ 6 more variables: SIZE_UK <dbl>, UNITPRICE <dbl>, DISCOUNT <dbl>,
#   YEAR <dbl>, MONTH <dbl>, SALEPRICE <dbl>

df |> filter (COUNTRY %in% c("United States", "Canada"))

# A tibble: 8,838 × 14
   INVOICENO DATE       COUNTRY       PRODUCTID SHOP  GENDER SIZE_US SIZE_EUROPE
       <dbl> <date>     <chr>         <chr>     <chr> <chr>    <dbl> <chr>      
 1     52390 2014-01-01 United States 2230      US15  Male      11.5 44-45      
 2     52391 2014-01-01 Canada        2160      CAN7  Male       9.5 42-43      
 3     52392 2014-01-01 United States 2234      US6   Female     9.5 40         
 4     52394 2014-01-01 United States 2173      US15  Male      10.5 43-44      
 5     52396 2014-01-02 Canada        2238      CAN5  Male      10   43         
 6     52397 2014-01-02 United States 2191      US13  Male      10.5 43-44      
 7     52399 2014-01-02 United States 2197      US1   Male      10   43         
 8     52399 2014-01-02 United States 2213      US11  Female     9.5 40         
 9     52399 2014-01-02 United States 2206      US2   Female     9.5 40         
10     52400 2014-01-02 United States 2152      US15  Male       8   41         
# ℹ 8,828 more rows
# ℹ 6 more variables: SIZE_UK <dbl>, UNITPRICE <dbl>, DISCOUNT <dbl>,
#   YEAR <dbl>, MONTH <dbl>, SALEPRICE <dbl>

df |> filter (COUNTRY == "United States", YEAR == "2016")

# A tibble: 2,935 × 14
   INVOICENO DATE       COUNTRY       PRODUCTID SHOP  GENDER SIZE_US SIZE_EUROPE
       <dbl> <date>     <chr>         <chr>     <chr> <chr>    <dbl> <chr>      
 1     59206 2016-01-02 United States 2186      US13  Female     8   38-39      
 2     59209 2016-01-02 United States 2193      US14  Female     9   39-40      
 3     59213 2016-01-02 United States 2228      US13  Male       9.5 42-43      
 4     59214 2016-01-02 United States 2177      US12  Female    10.5 41         
 5     59214 2016-01-02 United States 2236      US6   Male       8.5 41-42      
 6     59219 2016-01-03 United States 2188      US14  Female     9.5 40         
 7     59221 2016-01-03 United States 2178      US13  Female     8   38-39      
 8     59223 2016-01-03 United States 2158      US3   Male       8   41         
 9     59225 2016-01-03 United States 2236      US13  Male       8   41         
10     59226 2016-01-03 United States 2207      US14  Male      14   47         
# ℹ 2,925 more rows
# ℹ 6 more variables: SIZE_UK <dbl>, UNITPRICE <dbl>, DISCOUNT <dbl>,
#   YEAR <dbl>, MONTH <dbl>, SALEPRICE <dbl>

df |> filter (COUNTRY == "United States", YEAR %in% c("2015","2016"))

# A tibble: 4,859 × 14
   INVOICENO DATE       COUNTRY       PRODUCTID SHOP  GENDER SIZE_US SIZE_EUROPE
       <dbl> <date>     <chr>         <chr>     <chr> <chr>    <dbl> <chr>      
 1     54725 2015-01-01 United States 2187      US7   Male       9.5 42-43      
 2     54726 2015-01-01 United States 2174      US3   Male       8.5 41-42      
 3     54727 2015-01-01 United States 2240      US11  Male       9   42         
 4     54733 2015-01-02 United States 2173      US5   Female     9   39-40      
 5     54738 2015-01-02 United States 2226      US3   Male      10   43         
 6     54739 2015-01-02 United States 2199      US11  Male       9.5 42-43      
 7     54742 2015-01-03 United States 2209      US6   Male      10   43         
 8     54743 2015-01-03 United States 2238      US15  Female     7.5 38         
 9     54745 2015-01-04 United States 2214      US12  Male      10.5 43-44      
10     54749 2015-01-04 United States 2162      US15  Male       9.5 42-43      
# ℹ 4,849 more rows
# ℹ 6 more variables: SIZE_UK <dbl>, UNITPRICE <dbl>, DISCOUNT <dbl>,
#   YEAR <dbl>, MONTH <dbl>, SALEPRICE <dbl>

df |> filter (COUNTRY %in% c("United States", "Canada"), YEAR == "2014")

# A tibble: 1,649 × 14
   INVOICENO DATE       COUNTRY       PRODUCTID SHOP  GENDER SIZE_US SIZE_EUROPE
       <dbl> <date>     <chr>         <chr>     <chr> <chr>    <dbl> <chr>      
 1     52390 2014-01-01 United States 2230      US15  Male      11.5 44-45      
 2     52391 2014-01-01 Canada        2160      CAN7  Male       9.5 42-43      
 3     52392 2014-01-01 United States 2234      US6   Female     9.5 40         
 4     52394 2014-01-01 United States 2173      US15  Male      10.5 43-44      
 5     52396 2014-01-02 Canada        2238      CAN5  Male      10   43         
 6     52397 2014-01-02 United States 2191      US13  Male      10.5 43-44      
 7     52399 2014-01-02 United States 2197      US1   Male      10   43         
 8     52399 2014-01-02 United States 2213      US11  Female     9.5 40         
 9     52399 2014-01-02 United States 2206      US2   Female     9.5 40         
10     52400 2014-01-02 United States 2152      US15  Male       8   41         
# ℹ 1,639 more rows
# ℹ 6 more variables: SIZE_UK <dbl>, UNITPRICE <dbl>, DISCOUNT <dbl>,
#   YEAR <dbl>, MONTH <dbl>, SALEPRICE <dbl>
…
[5886 rows x 3 columns]

3.9.2 2nd Verb - arrange () Function

     In arrange functions, we order the rows of a data frame by the values of given columns. It is like sorting or odering the data.

dplyr
pandas

df |>
    arrange(DATE)     

# A tibble: 14,967 × 14
   INVOICENO DATE       COUNTRY       PRODUCTID SHOP  GENDER SIZE_US SIZE_EUROPE
       <dbl> <date>     <chr>         <chr>     <chr> <chr>    <dbl> <chr>      
 1     52389 2014-01-01 United Kingd… 2152      UK2   Male      11   44         
 2     52390 2014-01-01 United States 2230      US15  Male      11.5 44-45      
 3     52391 2014-01-01 Canada        2160      CAN7  Male       9.5 42-43      
 4     52392 2014-01-01 United States 2234      US6   Female     9.5 40         
 5     52393 2014-01-01 United Kingd… 2222      UK4   Female     9   39-40      
 6     52394 2014-01-01 United States 2173      US15  Male      10.5 43-44      
 7     52395 2014-01-02 Germany       2200      GER2  Female     9   39-40      
 8     52396 2014-01-02 Canada        2238      CAN5  Male      10   43         
 9     52397 2014-01-02 United States 2191      US13  Male      10.5 43-44      
10     52398 2014-01-02 United Kingd… 2237      UK1   Female     9   39-40      
# ℹ 14,957 more rows
# ℹ 6 more variables: SIZE_UK <dbl>, UNITPRICE <dbl>, DISCOUNT <dbl>,
#   YEAR <dbl>, MONTH <dbl>, SALEPRICE <dbl>

df |>
    arrange(desc(DATE))     

# A tibble: 14,967 × 14
   INVOICENO DATE       COUNTRY       PRODUCTID SHOP  GENDER SIZE_US SIZE_EUROPE
       <dbl> <date>     <chr>         <chr>     <chr> <chr>    <dbl> <chr>      
 1     65765 2016-12-31 Canada        2199      CAN5  Male      11   44         
 2     65766 2016-12-31 United Kingd… 2202      UK1   Male       9.5 42-43      
 3     65767 2016-12-31 United States 2147      US15  Male       9.5 42-43      
 4     65768 2016-12-31 Germany       2205      GER1  Female     7.5 38         
 5     65769 2016-12-31 Germany       2210      GER2  Male      10.5 43-44      
 6     65770 2016-12-31 United States 2178      US13  Female     8   38-39      
 7     65771 2016-12-31 United States 2209      US15  Male       9   42         
 8     65772 2016-12-31 United States 2168      US13  Male       8   41         
 9     65773 2016-12-31 United Kingd… 2154      UK2   Male       9.5 42-43      
10     65774 2016-12-31 United States 2181      US12  Female    12   42-43      
# ℹ 14,957 more rows
# ℹ 6 more variables: SIZE_UK <dbl>, UNITPRICE <dbl>, DISCOUNT <dbl>,
#   YEAR <dbl>, MONTH <dbl>, SALEPRICE <dbl>

df |>
    arrange(MONTH, SALEPRICE)     

# A tibble: 14,967 × 14
   INVOICENO DATE       COUNTRY       PRODUCTID SHOP  GENDER SIZE_US SIZE_EUROPE
       <dbl> <date>     <chr>         <chr>     <chr> <chr>    <dbl> <chr>      
 1     52414 2014-01-05 Germany       2239      GER2  Female     8.5 39         
 2     52533 2014-01-25 Canada        2151      CAN5  Female     9   39-40      
 3     52539 2014-01-26 United Kingd… 2227      UK1   Female     7.5 38         
 4     52548 2014-01-27 United Kingd… 2224      UK3   Male       8.5 41-42      
 5     54734 2015-01-02 Germany       2222      GER3  Female     7.5 38         
 6     54772 2015-01-06 Germany       2159      GER1  Male      12   45         
 7     54864 2015-01-16 Germany       2239      GER2  Female     7.5 38         
 8     54989 2015-01-28 Canada        2152      CAN6  Female     8   38-39      
 9     59220 2016-01-03 Canada        2202      CAN7  Male      10.5 43-44      
10     59242 2016-01-04 United States 2231      US9   Female     9   39-40      
# ℹ 14,957 more rows
# ℹ 6 more variables: SIZE_UK <dbl>, UNITPRICE <dbl>, DISCOUNT <dbl>,
#   YEAR <dbl>, MONTH <dbl>, SALEPRICE <dbl>
…
[14967 rows x 14 columns]

3.9.3 3rd Verb - select () Function

     Select functions help to select or obtain columns from the data frame. When there are a lot of columns in our dataset, select functions become very useful.

dplyr
pandas

df |> select(DATE, UNITPRICE, DISCOUNT)   

# A tibble: 14,967 × 3
   DATE       UNITPRICE DISCOUNT
   <date>         <dbl>    <dbl>
 1 2014-01-01       159      0  
 2 2014-01-01       199      0.2
 3 2014-01-01       149      0.2
 4 2014-01-01       159      0  
 5 2014-01-01       159      0  
 6 2014-01-01       159      0  
 7 2014-01-02       179      0  
 8 2014-01-02       169      0  
 9 2014-01-02       139      0  
10 2014-01-02       149      0  
# ℹ 14,957 more rows

df |> select(1:2, 5:8)  

# A tibble: 14,967 × 6
   INVOICENO DATE       SHOP  GENDER SIZE_US SIZE_EUROPE
       <dbl> <date>     <chr> <chr>    <dbl> <chr>      
 1     52389 2014-01-01 UK2   Male      11   44         
 2     52390 2014-01-01 US15  Male      11.5 44-45      
 3     52391 2014-01-01 CAN7  Male       9.5 42-43      
 4     52392 2014-01-01 US6   Female     9.5 40         
 5     52393 2014-01-01 UK4   Female     9   39-40      
 6     52394 2014-01-01 US15  Male      10.5 43-44      
 7     52395 2014-01-02 GER2  Female     9   39-40      
 8     52396 2014-01-02 CAN5  Male      10   43         
 9     52397 2014-01-02 US13  Male      10.5 43-44      
10     52398 2014-01-02 UK1   Female     9   39-40      
# ℹ 14,957 more rows

df |>
    select(starts_with('SIZE'))

# A tibble: 14,967 × 3
   SIZE_US SIZE_EUROPE SIZE_UK
     <dbl> <chr>         <dbl>
 1    11   44             10.5
 2    11.5 44-45          11  
 3     9.5 42-43           9  
 4     9.5 40              7.5
 5     9   39-40           7  
 6    10.5 43-44          10  
 7     9   39-40           7  
 8    10   43              9.5
 9    10.5 43-44          10  
10     9   39-40           7  
# ℹ 14,957 more rows

df |>
    select(ends_with('PRICE'))

# A tibble: 14,967 × 2
   UNITPRICE SALEPRICE
       <dbl>     <dbl>
 1       159      159 
 2       199      159.
 3       149      119.
 4       159      159 
 5       159      159 
 6       159      159 
 7       179      179 
 8       169      169 
 9       139      139 
10       149      149 
# ℹ 14,957 more rows

df |>
    select(contains("_"))

# A tibble: 14,967 × 3
   SIZE_US SIZE_EUROPE SIZE_UK
     <dbl> <chr>         <dbl>
 1    11   44             10.5
 2    11.5 44-45          11  
 3     9.5 42-43           9  
 4     9.5 40              7.5
 5     9   39-40           7  
 6    10.5 43-44          10  
 7     9   39-40           7  
 8    10   43              9.5
 9    10.5 43-44          10  
10     9   39-40           7  
# ℹ 14,957 more rows

df |>
    select(matches("SIZE"))

# A tibble: 14,967 × 3
   SIZE_US SIZE_EUROPE SIZE_UK
     <dbl> <chr>         <dbl>
 1    11   44             10.5
 2    11.5 44-45          11  
 3     9.5 42-43           9  
 4     9.5 40              7.5
 5     9   39-40           7  
 6    10.5 43-44          10  
 7     9   39-40           7  
 8    10   43              9.5
 9    10.5 43-44          10  
10     9   39-40           7  
# ℹ 14,957 more rows

df |>
    select(matches("PRICE$"))

# A tibble: 14,967 × 2
   UNITPRICE SALEPRICE
       <dbl>     <dbl>
 1       159      159 
 2       199      159.
 3       149      119.
 4       159      159 
 5       159      159 
 6       159      159 
 7       179      179 
 8       169      169 
 9       139      139 
10       149      149 
# ℹ 14,957 more rows

# starts with letter S
df |>
    select(matches("^S"))

# A tibble: 14,967 × 5
   SHOP  SIZE_US SIZE_EUROPE SIZE_UK SALEPRICE
   <chr>   <dbl> <chr>         <dbl>     <dbl>
 1 UK2      11   44             10.5      159 
 2 US15     11.5 44-45          11        159.
 3 CAN7      9.5 42-43           9        119.
 4 US6       9.5 40              7.5      159 
 5 UK4       9   39-40           7        159 
 6 US15     10.5 43-44          10        159 
 7 GER2      9   39-40           7        179 
 8 CAN5     10   43              9.5      169 
 9 US13     10.5 43-44          10        139 
10 UK1       9   39-40           7        149 
# ℹ 14,957 more rows

df |>
    select(where(is.character))

# A tibble: 14,967 × 5
   COUNTRY        PRODUCTID SHOP  GENDER SIZE_EUROPE
   <chr>          <chr>     <chr> <chr>  <chr>      
 1 United Kingdom 2152      UK2   Male   44         
 2 United States  2230      US15  Male   44-45      
 3 Canada         2160      CAN7  Male   42-43      
 4 United States  2234      US6   Female 40         
 5 United Kingdom 2222      UK4   Female 39-40      
 6 United States  2173      US15  Male   43-44      
 7 Germany        2200      GER2  Female 39-40      
 8 Canada         2238      CAN5  Male   43         
 9 United States  2191      US13  Male   43-44      
10 United Kingdom 2237      UK1   Female 39-40      
# ℹ 14,957 more rows

df |>
    select(where(is.numeric))

# A tibble: 14,967 × 8
   INVOICENO SIZE_US SIZE_UK UNITPRICE DISCOUNT  YEAR MONTH SALEPRICE
       <dbl>   <dbl>   <dbl>     <dbl>    <dbl> <dbl> <dbl>     <dbl>
 1     52389    11      10.5       159      0    2014     1      159 
 2     52390    11.5    11         199      0.2  2014     1      159.
 3     52391     9.5     9         149      0.2  2014     1      119.
 4     52392     9.5     7.5       159      0    2014     1      159 
 5     52393     9       7         159      0    2014     1      159 
 6     52394    10.5    10         159      0    2014     1      159 
 7     52395     9       7         179      0    2014     1      179 
 8     52396    10       9.5       169      0    2014     1      169 
 9     52397    10.5    10         139      0    2014     1      139 
10     52398     9       7         149      0    2014     1      149 
# ℹ 14,957 more rows

df |>
    select(MONTH, YEAR, everything())

# A tibble: 14,967 × 14
   MONTH  YEAR INVOICENO DATE       COUNTRY       PRODUCTID SHOP  GENDER SIZE_US
   <dbl> <dbl>     <dbl> <date>     <chr>         <chr>     <chr> <chr>    <dbl>
 1     1  2014     52389 2014-01-01 United Kingd… 2152      UK2   Male      11  
 2     1  2014     52390 2014-01-01 United States 2230      US15  Male      11.5
 3     1  2014     52391 2014-01-01 Canada        2160      CAN7  Male       9.5
 4     1  2014     52392 2014-01-01 United States 2234      US6   Female     9.5
 5     1  2014     52393 2014-01-01 United Kingd… 2222      UK4   Female     9  
 6     1  2014     52394 2014-01-01 United States 2173      US15  Male      10.5
 7     1  2014     52395 2014-01-02 Germany       2200      GER2  Female     9  
 8     1  2014     52396 2014-01-02 Canada        2238      CAN5  Male      10  
 9     1  2014     52397 2014-01-02 United States 2191      US13  Male      10.5
10     1  2014     52398 2014-01-02 United Kingd… 2237      UK1   Female     9  
# ℹ 14,957 more rows
# ℹ 5 more variables: SIZE_EUROPE <chr>, SIZE_UK <dbl>, UNITPRICE <dbl>,
#   DISCOUNT <dbl>, SALEPRICE <dbl>

# any_of () vs all_of ()
df |>
    select(any_of(c("PRICE", "SIZE")))

# A tibble: 14,967 × 0

# Dropping columns 
df |>
    select(-DATE)

# A tibble: 14,967 × 13
   INVOICENO COUNTRY        PRODUCTID SHOP  GENDER SIZE_US SIZE_EUROPE SIZE_UK
       <dbl> <chr>          <chr>     <chr> <chr>    <dbl> <chr>         <dbl>
 1     52389 United Kingdom 2152      UK2   Male      11   44             10.5
 2     52390 United States  2230      US15  Male      11.5 44-45          11  
 3     52391 Canada         2160      CAN7  Male       9.5 42-43           9  
 4     52392 United States  2234      US6   Female     9.5 40              7.5
 5     52393 United Kingdom 2222      UK4   Female     9   39-40           7  
 6     52394 United States  2173      US15  Male      10.5 43-44          10  
 7     52395 Germany        2200      GER2  Female     9   39-40           7  
 8     52396 Canada         2238      CAN5  Male      10   43              9.5
 9     52397 United States  2191      US13  Male      10.5 43-44          10  
10     52398 United Kingdom 2237      UK1   Female     9   39-40           7  
# ℹ 14,957 more rows
# ℹ 5 more variables: UNITPRICE <dbl>, DISCOUNT <dbl>, YEAR <dbl>, MONTH <dbl>,
#   SALEPRICE <dbl>
…
