Analytics for Accounting Data - 7 Predictive Modeling - Linear Regression
…
glance(model2) # information about model fitness 

# A tibble: 1 × 12
  r.squared adj.r.squared  sigma statistic   p.value    df logLik    AIC    BIC
      <dbl>         <dbl>  <dbl>     <dbl>     <dbl> <dbl>  <dbl>  <dbl>  <dbl>
1     0.418         0.417 0.0103      901. 1.36e-149     1  3964. -7921. -7906.
# ℹ 3 more variables: deviance <dbl>, df.residual <int>, nobs <int>

augment(model2, data = df_stockR2) # adds info to the dataset 

# A tibble: 1,257 × 10
         KO       SPY      PEP DX.Y.NYB  .fitted   .resid    .hat .sigma .cooksd
      <dbl>     <dbl>    <dbl>    <dbl>    <dbl>    <dbl>   <dbl>  <dbl>   <dbl>
 1 -0.00620 -0.0242   -9.38e-3 -5.28e-3 -1.60e-2  9.80e-3 3.56e-3 0.0103 1.61e-3
 2  0.0197   0.0329    2.03e-2 -1.25e-3  2.17e-2 -1.91e-3 5.53e-3 0.0103 9.54e-5
 3 -0.0131   0.00785  -8.64e-3 -5.00e-3  5.11e-3 -1.82e-2 1.03e-3 0.0103 1.61e-3
 4  0.0112   0.00935   9.54e-3  1.98e-3  6.09e-3  5.13e-3 1.14e-3 0.0103 1.41e-4
 5 -0.0194   0.00466  -2.83e-2 -7.12e-3  3.00e-3 -2.24e-2 8.71e-4 0.0103 2.04e-3
 6  0.0107   0.00352   6.12e-3  3.36e-3  2.25e-3  8.43e-3 8.35e-4 0.0103 2.78e-4
 7  0.00572  0.000386  9.24e-5  1.36e-3  1.80e-4  5.54e-3 7.96e-4 0.0103 1.14e-4
 8 -0.00402 -0.00612  -7.80e-3 -8.37e-4 -4.11e-3  8.87e-5 9.98e-4 0.0103 3.67e-8
 9  0.00887  0.0114    1.54e-2  3.97e-3  7.44e-3  1.43e-3 1.32e-3 0.0103 1.26e-5
10 -0.0138   0.00242  -5.98e-3  9.37e-4  1.52e-3 -1.53e-2 8.11e-4 0.0103 8.86e-4
# ℹ 1,247 more rows
# ℹ 1 more variable: .std.resid <dbl>
…
